.............
----------------------------------------------------------------------
Ran 13 tests in 0.030s

OK
Name             Stmts   Miss Branch BrPart  Cover   Missing
------------------------------------------------------------
Collatz.py          39      0     18      0   100%
TestCollatz.py      60      0      0      0   100%
------------------------------------------------------------
TOTAL               99      0     18      0   100%
